module github.com/vutratenko/pig

go 1.16

require (
	github.com/gorilla/mux v1.8.0
	github.com/mitchellh/go-homedir v1.1.0
	github.com/rs/zerolog v1.22.0
	github.com/sirupsen/logrus v1.2.0
	github.com/spf13/cobra v1.1.3
	github.com/spf13/viper v1.7.1
)
